Toronto;Jessica Boudreault;WB123456;2021-03-26;2021-04-10
Vancouver;Jon Powter;NB123456;2021-04-22;2021-05-01
Australia;Nina Mezl;JH876543;2021-05-03;2021-06-05
France;Gerry;RE432156;2021-03-27;2021-04-10
